<svg xmlns="http://www.w3.org/2000/svg" width="30" height="14" viewBox="0 0 30 14">
<defs>
    <style>
      .cls-1 {
        fill: #fff;
        fill-rule: evenodd;
      }
    </style>
  </defs>
  <path id="Прямоугольник_9_копия_2" data-name="Прямоугольник 9 копия 2" class="cls-1" d="M8,12.668L6.72,14,0.007,7,6.72,0,8,1.335,2.564,7Z"/>
  <path id="Прямоугольник_9_копия" data-name="Прямоугольник 9 копия" class="cls-1" d="M23.28,14L22,12.664,27.436,7,22,1.331,23.28,0l6.713,7Z"/>
</svg>
